Package,Version
Boruta,0.3
dill,0.3.1.1
ggplot,0.11.5
graphviz,0.13.2
lightgbm,3.3.1
matplotlib,3.1.1
numpy,1.16.5
numpydoc,0.9.1
pandas,0.25.1
scipy,1.3.1
seaborn,0.9.0
statsmodels,0.10.1
tensorboard,2.0.1
tensorflow,2.0.0
tensorflow-estimator,2.0.1
xgboost,1.0.2
scikit-learn,0.21.3
pickleshare,0.7.5
