VARIABLE,a,b,c,r2
r_monto_linea_acot,1160.2085876890421,-15.66375204811995,-0.8768117787941898,-1.0644197022372905
montoant_acot,1.3849879297019817e-07,-0.0001937027123102885,-0.7246584446591542,-62.57450019716263
var_monto_acot,-2.074237005844637e-05,0.001428458833101831,-0.7830421036701714,-1572.4123558384074
dia_acot,-0.00027989587072399486,0.01003817807746925,-0.9605509286545182,-32.23244013953343
horas_slo_acot,1.1427688687608673e-05,-0.008606106912306217,-0.35287856358840103,0.9139509948766099
dcto_acot,6.335664437604316e-05,-0.005599463599288829,-0.8227460006407105,-3.762389316709278
hora_acot,0.00017590534812450542,-0.0016358898388622034,-0.8972485640070293,-23.019537829133192
ctd_operbyuser_acot,-0.0006506484489581326,0.1099530627510597,-1.593523506351609,0.9849815455752696
linea_tc_acot,4.1833805532969987e-10,-5.9446461697183983e-05,1.0351499707595189,-5.744542815337921
interes_tc_acot,0.0007024233888352311,-0.06120624717182423,0.3031934116297144,-31.938773612523782
ctd_oper0_acot,-0.0981115390722234,0.7107326660481752,-1.2785398816343356,1.0
